lab02/lab02.sim/sim_1/behav/xsim/simulate.log
Time resolution is 1 ps
~~~ OK A=4'b0000, B=4'b0000, addsub=0, result=4'b0000, cf=0, zero=1, of=0
~~~ OK A=4'b0000, B=4'b0001, addsub=0, result=4'b0001, cf=0, zero=0, of=0
~~~ OK A=4'b0000, B=4'b0010, addsub=0, result=4'b0010, cf=0, zero=0, of=0
~~~ OK A=4'b0000, B=4'b0011, addsub=0, result=4'b0011, cf=0, zero=0, of=0
~~~ OK A=4'b0000, B=4'b0100, addsub=0, result=4'b0100, cf=0, zero=0, of=0
~~~ OK A=4'b0000, B=4'b0101, addsub=0, result=4'b0101, cf=0, zero=0, of=0
~~~ OK A=4'b0000, B=4'b0110, addsub=0, result=4'b0110, cf=0, zero=0, of=0
~~~ OK A=4'b0000, B=4'b0111, addsub=0, result=4'b0111, cf=0, zero=0, of=0
~~~ OK A=4'b0000, B=4'b1000, addsub=0, result=4'b1000, cf=0, zero=0, of=0
~~~ OK A=4'b0000, B=4'b1001, addsub=0, result=4'b1001, cf=0, zero=0, of=0
~~~ OK A=4'b0000, B=4'b1010, addsub=0, result=4'b1010, cf=0, zero=0, of=0
~~~ OK A=4'b0000, B=4'b1011, addsub=0, result=4'b1011, cf=0, zero=0, of=0
~~~ OK A=4'b0000, B=4'b1100, addsub=0, result=4'b1100, cf=0, zero=0, of=0
~~~ OK A=4'b0000, B=4'b1101, addsub=0, result=4'b1101, cf=0, zero=0, of=0
~~~ OK A=4'b0000, B=4'b1110, addsub=0, result=4'b1110, cf=0, zero=0, of=0
~~~ OK A=4'b0000, B=4'b1111, addsub=0, result=4'b1111, cf=0, zero=0, of=0
~~~ OK A=4'b0001, B=4'b0000, addsub=0, result=4'b0001, cf=0, zero=0, of=0
~~~ OK A=4'b0001, B=4'b0001, addsub=0, result=4'b0010, cf=0, zero=0, of=0
~~~ OK A=4'b0001, B=4'b0010, addsub=0, result=4'b0011, cf=0, zero=0, of=0
~~~ OK A=4'b0001, B=4'b0011, addsub=0, result=4'b0100, cf=0, zero=0, of=0
~~~ OK A=4'b0001, B=4'b0100, addsub=0, result=4'b0101, cf=0, zero=0, of=0
~~~ OK A=4'b0001, B=4'b0101, addsub=0, result=4'b0110, cf=0, zero=0, of=0
~~~ OK A=4'b0001, B=4'b0110, addsub=0, result=4'b0111, cf=0, zero=0, of=0
~~~ OK A=4'b0001, B=4'b0111, addsub=0, result=4'b1000, cf=0, zero=0, of=1
~~~ OK A=4'b0001, B=4'b1000, addsub=0, result=4'b1001, cf=0, zero=0, of=0
~~~ OK A=4'b0001, B=4'b1001, addsub=0, result=4'b1010, cf=0, zero=0, of=0
~~~ OK A=4'b0001, B=4'b1010, addsub=0, result=4'b1011, cf=0, zero=0, of=0
~~~ OK A=4'b0001, B=4'b1011, addsub=0, result=4'b1100, cf=0, zero=0, of=0
~~~ OK A=4'b0001, B=4'b1100, addsub=0, result=4'b1101, cf=0, zero=0, of=0
~~~ OK A=4'b0001, B=4'b1101, addsub=0, result=4'b1110, cf=0, zero=0, of=0
~~~ OK A=4'b0001, B=4'b1110, addsub=0, result=4'b1111, cf=0, zero=0, of=0
~~~ OK A=4'b0001, B=4'b1111, addsub=0, result=4'b0000, cf=1, zero=1, of=0
~~~ OK A=4'b0010, B=4'b0000, addsub=0, result=4'b0010, cf=0, zero=0, of=0
~~~ OK A=4'b0010, B=4'b0001, addsub=0, result=4'b0011, cf=0, zero=0, of=0
~~~ OK A=4'b0010, B=4'b0010, addsub=0, result=4'b0100, cf=0, zero=0, of=0
~~~ OK A=4'b0010, B=4'b0011, addsub=0, result=4'b0101, cf=0, zero=0, of=0
~~~ OK A=4'b0010, B=4'b0100, addsub=0, result=4'b0110, cf=0, zero=0, of=0
~~~ OK A=4'b0010, B=4'b0101, addsub=0, result=4'b0111, cf=0, zero=0, of=0
~~~ OK A=4'b0010, B=4'b0110, addsub=0, result=4'b1000, cf=0, zero=0, of=1
~~~ OK A=4'b0010, B=4'b0111, addsub=0, result=4'b1001, cf=0, zero=0, of=1
~~~ OK A=4'b0010, B=4'b1000, addsub=0, result=4'b1010, cf=0, zero=0, of=0
~~~ OK A=4'b0010, B=4'b1001, addsub=0, result=4'b1011, cf=0, zero=0, of=0
~~~ OK A=4'b0010, B=4'b1010, addsub=0, result=4'b1100, cf=0, zero=0, of=0
~~~ OK A=4'b0010, B=4'b1011, addsub=0, result=4'b1101, cf=0, zero=0, of=0
~~~ OK A=4'b0010, B=4'b1100, addsub=0, result=4'b1110, cf=0, zero=0, of=0
~~~ OK A=4'b0010, B=4'b1101, addsub=0, result=4'b1111, cf=0, zero=0, of=0
~~~ OK A=4'b0010, B=4'b1110, addsub=0, result=4'b0000, cf=1, zero=1, of=0
~~~ OK A=4'b0010, B=4'b1111, addsub=0, result=4'b0001, cf=1, zero=0, of=0
~~~ OK A=4'b0011, B=4'b0000, addsub=0, result=4'b0011, cf=0, zero=0, of=0
~~~ OK A=4'b0011, B=4'b0001, addsub=0, result=4'b0100, cf=0, zero=0, of=0
~~~ OK A=4'b0011, B=4'b0010, addsub=0, result=4'b0101, cf=0, zero=0, of=0
~~~ OK A=4'b0011, B=4'b0011, addsub=0, result=4'b0110, cf=0, zero=0, of=0
~~~ OK A=4'b0011, B=4'b0100, addsub=0, result=4'b0111, cf=0, zero=0, of=0
~~~ OK A=4'b0011, B=4'b0101, addsub=0, result=4'b1000, cf=0, zero=0, of=1
~~~ OK A=4'b0011, B=4'b0110, addsub=0, result=4'b1001, cf=0, zero=0, of=1
~~~ OK A=4'b0011, B=4'b0111, addsub=0, result=4'b1010, cf=0, zero=0, of=1
~~~ OK A=4'b0011, B=4'b1000, addsub=0, result=4'b1011, cf=0, zero=0, of=0
~~~ OK A=4'b0011, B=4'b1001, addsub=0, result=4'b1100, cf=0, zero=0, of=0
~~~ OK A=4'b0011, B=4'b1010, addsub=0, result=4'b1101, cf=0, zero=0, of=0
~~~ OK A=4'b0011, B=4'b1011, addsub=0, result=4'b1110, cf=0, zero=0, of=0
~~~ OK A=4'b0011, B=4'b1100, addsub=0, result=4'b1111, cf=0, zero=0, of=0
~~~ OK A=4'b0011, B=4'b1101, addsub=0, result=4'b0000, cf=1, zero=1, of=0
~~~ OK A=4'b0011, B=4'b1110, addsub=0, result=4'b0001, cf=1, zero=0, of=0
~~~ OK A=4'b0011, B=4'b1111, addsub=0, result=4'b0010, cf=1, zero=0, of=0
~~~ OK A=4'b0100, B=4'b0000, addsub=0, result=4'b0100, cf=0, zero=0, of=0
~~~ OK A=4'b0100, B=4'b0001, addsub=0, result=4'b0101, cf=0, zero=0, of=0
~~~ OK A=4'b0100, B=4'b0010, addsub=0, result=4'b0110, cf=0, zero=0, of=0
~~~ OK A=4'b0100, B=4'b0011, addsub=0, result=4'b0111, cf=0, zero=0, of=0
~~~ OK A=4'b0100, B=4'b0100, addsub=0, result=4'b1000, cf=0, zero=0, of=1
~~~ OK A=4'b0100, B=4'b0101, addsub=0, result=4'b1001, cf=0, zero=0, of=1
~~~ OK A=4'b0100, B=4'b0110, addsub=0, result=4'b1010, cf=0, zero=0, of=1
~~~ OK A=4'b0100, B=4'b0111, addsub=0, result=4'b1011, cf=0, zero=0, of=1
~~~ OK A=4'b0100, B=4'b1000, addsub=0, result=4'b1100, cf=0, zero=0, of=0
~~~ OK A=4'b0100, B=4'b1001, addsub=0, result=4'b1101, cf=0, zero=0, of=0
~~~ OK A=4'b0100, B=4'b1010, addsub=0, result=4'b1110, cf=0, zero=0, of=0
~~~ OK A=4'b0100, B=4'b1011, addsub=0, result=4'b1111, cf=0, zero=0, of=0
~~~ OK A=4'b0100, B=4'b1100, addsub=0, result=4'b0000, cf=1, zero=1, of=0
~~~ OK A=4'b0100, B=4'b1101, addsub=0, result=4'b0001, cf=1, zero=0, of=0
~~~ OK A=4'b0100, B=4'b1110, addsub=0, result=4'b0010, cf=1, zero=0, of=0
~~~ OK A=4'b0100, B=4'b1111, addsub=0, result=4'b0011, cf=1, zero=0, of=0
~~~ OK A=4'b0101, B=4'b0000, addsub=0, result=4'b0101, cf=0, zero=0, of=0
~~~ OK A=4'b0101, B=4'b0001, addsub=0, result=4'b0110, cf=0, zero=0, of=0
~~~ OK A=4'b0101, B=4'b0010, addsub=0, result=4'b0111, cf=0, zero=0, of=0
~~~ OK A=4'b0101, B=4'b0011, addsub=0, result=4'b1000, cf=0, zero=0, of=1
~~~ OK A=4'b0101, B=4'b0100, addsub=0, result=4'b1001, cf=0, zero=0, of=1
~~~ OK A=4'b0101, B=4'b0101, addsub=0, result=4'b1010, cf=0, zero=0, of=1
~~~ OK A=4'b0101, B=4'b0110, addsub=0, result=4'b1011, cf=0, zero=0, of=1
~~~ OK A=4'b0101, B=4'b0111, addsub=0, result=4'b1100, cf=0, zero=0, of=1
~~~ OK A=4'b0101, B=4'b1000, addsub=0, result=4'b1101, cf=0, zero=0, of=0
~~~ OK A=4'b0101, B=4'b1001, addsub=0, result=4'b1110, cf=0, zero=0, of=0
~~~ OK A=4'b0101, B=4'b1010, addsub=0, result=4'b1111, cf=0, zero=0, of=0
~~~ OK A=4'b0101, B=4'b1011, addsub=0, result=4'b0000, cf=1, zero=1, of=0
~~~ OK A=4'b0101, B=4'b1100, addsub=0, result=4'b0001, cf=1, zero=0, of=0
~~~ OK A=4'b0101, B=4'b1101, addsub=0, result=4'b0010, cf=1, zero=0, of=0
~~~ OK A=4'b0101, B=4'b1110, addsub=0, result=4'b0011, cf=1, zero=0, of=0
~~~ OK A=4'b0101, B=4'b1111, addsub=0, result=4'b0100, cf=1, zero=0, of=0
~~~ OK A=4'b0110, B=4'b0000, addsub=0, result=4'b0110, cf=0, zero=0, of=0
~~~ OK A=4'b0110, B=4'b0001, addsub=0, result=4'b0111, cf=0, zero=0, of=0
~~~ OK A=4'b0110, B=4'b0010, addsub=0, result=4'b1000, cf=0, zero=0, of=1
~~~ OK A=4'b0110, B=4'b0011, addsub=0, result=4'b1001, cf=0, zero=0, of=1
~~~ OK A=4'b0110, B=4'b0100, addsub=0, result=4'b1010, cf=0, zero=0, of=1
~~~ OK A=4'b0110, B=4'b0101, addsub=0, result=4'b1011, cf=0, zero=0, of=1
~~~ OK A=4'b0110, B=4'b0110, addsub=0, result=4'b1100, cf=0, zero=0, of=1
~~~ OK A=4'b0110, B=4'b0111, addsub=0, result=4'b1101, cf=0, zero=0, of=1
~~~ OK A=4'b0110, B=4'b1000, addsub=0, result=4'b1110, cf=0, zero=0, of=0
~~~ OK A=4'b0110, B=4'b1001, addsub=0, result=4'b1111, cf=0, zero=0, of=0
~~~ OK A=4'b0110, B=4'b1010, addsub=0, result=4'b0000, cf=1, zero=1, of=0
~~~ OK A=4'b0110, B=4'b1011, addsub=0, result=4'b0001, cf=1, zero=0, of=0
~~~ OK A=4'b0110, B=4'b1100, addsub=0, result=4'b0010, cf=1, zero=0, of=0
~~~ OK A=4'b0110, B=4'b1101, addsub=0, result=4'b0011, cf=1, zero=0, of=0
~~~ OK A=4'b0110, B=4'b1110, addsub=0, result=4'b0100, cf=1, zero=0, of=0
~~~ OK A=4'b0110, B=4'b1111, addsub=0, result=4'b0101, cf=1, zero=0, of=0
~~~ OK A=4'b0111, B=4'b0000, addsub=0, result=4'b0111, cf=0, zero=0, of=0
~~~ OK A=4'b0111, B=4'b0001, addsub=0, result=4'b1000, cf=0, zero=0, of=1
~~~ OK A=4'b0111, B=4'b0010, addsub=0, result=4'b1001, cf=0, zero=0, of=1
~~~ OK A=4'b0111, B=4'b0011, addsub=0, result=4'b1010, cf=0, zero=0, of=1
~~~ OK A=4'b0111, B=4'b0100, addsub=0, result=4'b1011, cf=0, zero=0, of=1
~~~ OK A=4'b0111, B=4'b0101, addsub=0, result=4'b1100, cf=0, zero=0, of=1
~~~ OK A=4'b0111, B=4'b0110, addsub=0, result=4'b1101, cf=0, zero=0, of=1
~~~ OK A=4'b0111, B=4'b0111, addsub=0, result=4'b1110, cf=0, zero=0, of=1
~~~ OK A=4'b0111, B=4'b1000, addsub=0, result=4'b1111, cf=0, zero=0, of=0
~~~ OK A=4'b0111, B=4'b1001, addsub=0, result=4'b0000, cf=1, zero=1, of=0
~~~ OK A=4'b0111, B=4'b1010, addsub=0, result=4'b0001, cf=1, zero=0, of=0
~~~ OK A=4'b0111, B=4'b1011, addsub=0, result=4'b0010, cf=1, zero=0, of=0
~~~ OK A=4'b0111, B=4'b1100, addsub=0, result=4'b0011, cf=1, zero=0, of=0
~~~ OK A=4'b0111, B=4'b1101, addsub=0, result=4'b0100, cf=1, zero=0, of=0
~~~ OK A=4'b0111, B=4'b1110, addsub=0, result=4'b0101, cf=1, zero=0, of=0
~~~ OK A=4'b0111, B=4'b1111, addsub=0, result=4'b0110, cf=1, zero=0, of=0
~~~ OK A=4'b1000, B=4'b0000, addsub=0, result=4'b1000, cf=0, zero=0, of=0
~~~ OK A=4'b1000, B=4'b0001, addsub=0, result=4'b1001, cf=0, zero=0, of=0
~~~ OK A=4'b1000, B=4'b0010, addsub=0, result=4'b1010, cf=0, zero=0, of=0
~~~ OK A=4'b1000, B=4'b0011, addsub=0, result=4'b1011, cf=0, zero=0, of=0
~~~ OK A=4'b1000, B=4'b0100, addsub=0, result=4'b1100, cf=0, zero=0, of=0
~~~ OK A=4'b1000, B=4'b0101, addsub=0, result=4'b1101, cf=0, zero=0, of=0
~~~ OK A=4'b1000, B=4'b0110, addsub=0, result=4'b1110, cf=0, zero=0, of=0
~~~ OK A=4'b1000, B=4'b0111, addsub=0, result=4'b1111, cf=0, zero=0, of=0
~~~ OK A=4'b1000, B=4'b1000, addsub=0, result=4'b0000, cf=1, zero=1, of=1
~~~ OK A=4'b1000, B=4'b1001, addsub=0, result=4'b0001, cf=1, zero=0, of=1
~~~ OK A=4'b1000, B=4'b1010, addsub=0, result=4'b0010, cf=1, zero=0, of=1
~~~ OK A=4'b1000, B=4'b1011, addsub=0, result=4'b0011, cf=1, zero=0, of=1
~~~ OK A=4'b1000, B=4'b1100, addsub=0, result=4'b0100, cf=1, zero=0, of=1
~~~ OK A=4'b1000, B=4'b1101, addsub=0, result=4'b0101, cf=1, zero=0, of=1
~~~ OK A=4'b1000, B=4'b1110, addsub=0, result=4'b0110, cf=1, zero=0, of=1
~~~ OK A=4'b1000, B=4'b1111, addsub=0, result=4'b0111, cf=1, zero=0, of=1
~~~ OK A=4'b1001, B=4'b0000, addsub=0, result=4'b1001, cf=0, zero=0, of=0
~~~ OK A=4'b1001, B=4'b0001, addsub=0, result=4'b1010, cf=0, zero=0, of=0
~~~ OK A=4'b1001, B=4'b0010, addsub=0, result=4'b1011, cf=0, zero=0, of=0
~~~ OK A=4'b1001, B=4'b0011, addsub=0, result=4'b1100, cf=0, zero=0, of=0
~~~ OK A=4'b1001, B=4'b0100, addsub=0, result=4'b1101, cf=0, zero=0, of=0
~~~ OK A=4'b1001, B=4'b0101, addsub=0, result=4'b1110, cf=0, zero=0, of=0
~~~ OK A=4'b1001, B=4'b0110, addsub=0, result=4'b1111, cf=0, zero=0, of=0
~~~ OK A=4'b1001, B=4'b0111, addsub=0, result=4'b0000, cf=1, zero=1, of=0
~~~ OK A=4'b1001, B=4'b1000, addsub=0, result=4'b0001, cf=1, zero=0, of=1
~~~ OK A=4'b1001, B=4'b1001, addsub=0, result=4'b0010, cf=1, zero=0, of=1
~~~ OK A=4'b1001, B=4'b1010, addsub=0, result=4'b0011, cf=1, zero=0, of=1
~~~ OK A=4'b1001, B=4'b1011, addsub=0, result=4'b0100, cf=1, zero=0, of=1
~~~ OK A=4'b1001, B=4'b1100, addsub=0, result=4'b0101, cf=1, zero=0, of=1
~~~ OK A=4'b1001, B=4'b1101, addsub=0, result=4'b0110, cf=1, zero=0, of=1
~~~ OK A=4'b1001, B=4'b1110, addsub=0, result=4'b0111, cf=1, zero=0, of=1
~~~ OK A=4'b1001, B=4'b1111, addsub=0, result=4'b1000, cf=1, zero=0, of=0
~~~ OK A=4'b1010, B=4'b0000, addsub=0, result=4'b1010, cf=0, zero=0, of=0
~~~ OK A=4'b1010, B=4'b0001, addsub=0, result=4'b1011, cf=0, zero=0, of=0
~~~ OK A=4'b1010, B=4'b0010, addsub=0, result=4'b1100, cf=0, zero=0, of=0
~~~ OK A=4'b1010, B=4'b0011, addsub=0, result=4'b1101, cf=0, zero=0, of=0
~~~ OK A=4'b1010, B=4'b0100, addsub=0, result=4'b1110, cf=0, zero=0, of=0
~~~ OK A=4'b1010, B=4'b0101, addsub=0, result=4'b1111, cf=0, zero=0, of=0
~~~ OK A=4'b1010, B=4'b0110, addsub=0, result=4'b0000, cf=1, zero=1, of=0
~~~ OK A=4'b1010, B=4'b0111, addsub=0, result=4'b0001, cf=1, zero=0, of=0
~~~ OK A=4'b1010, B=4'b1000, addsub=0, result=4'b0010, cf=1, zero=0, of=1
~~~ OK A=4'b1010, B=4'b1001, addsub=0, result=4'b0011, cf=1, zero=0, of=1
~~~ OK A=4'b1010, B=4'b1010, addsub=0, result=4'b0100, cf=1, zero=0, of=1
~~~ OK A=4'b1010, B=4'b1011, addsub=0, result=4'b0101, cf=1, zero=0, of=1
~~~ OK A=4'b1010, B=4'b1100, addsub=0, result=4'b0110, cf=1, zero=0, of=1
~~~ OK A=4'b1010, B=4'b1101, addsub=0, result=4'b0111, cf=1, zero=0, of=1
~~~ OK A=4'b1010, B=4'b1110, addsub=0, result=4'b1000, cf=1, zero=0, of=0
~~~ OK A=4'b1010, B=4'b1111, addsub=0, result=4'b1001, cf=1, zero=0, of=0
~~~ OK A=4'b1011, B=4'b0000, addsub=0, result=4'b1011, cf=0, zero=0, of=0
~~~ OK A=4'b1011, B=4'b0001, addsub=0, result=4'b1100, cf=0, zero=0, of=0
~~~ OK A=4'b1011, B=4'b0010, addsub=0, result=4'b1101, cf=0, zero=0, of=0
~~~ OK A=4'b1011, B=4'b0011, addsub=0, result=4'b1110, cf=0, zero=0, of=0
~~~ OK A=4'b1011, B=4'b0100, addsub=0, result=4'b1111, cf=0, zero=0, of=0
~~~ OK A=4'b1011, B=4'b0101, addsub=0, result=4'b0000, cf=1, zero=1, of=0
~~~ OK A=4'b1011, B=4'b0110, addsub=0, result=4'b0001, cf=1, zero=0, of=0
~~~ OK A=4'b1011, B=4'b0111, addsub=0, result=4'b0010, cf=1, zero=0, of=0
~~~ OK A=4'b1011, B=4'b1000, addsub=0, result=4'b0011, cf=1, zero=0, of=1
~~~ OK A=4'b1011, B=4'b1001, addsub=0, result=4'b0100, cf=1, zero=0, of=1
~~~ OK A=4'b1011, B=4'b1010, addsub=0, result=4'b0101, cf=1, zero=0, of=1
~~~ OK A=4'b1011, B=4'b1011, addsub=0, result=4'b0110, cf=1, zero=0, of=1
~~~ OK A=4'b1011, B=4'b1100, addsub=0, result=4'b0111, cf=1, zero=0, of=1
~~~ OK A=4'b1011, B=4'b1101, addsub=0, result=4'b1000, cf=1, zero=0, of=0
~~~ OK A=4'b1011, B=4'b1110, addsub=0, result=4'b1001, cf=1, zero=0, of=0
~~~ OK A=4'b1011, B=4'b1111, addsub=0, result=4'b1010, cf=1, zero=0, of=0
~~~ OK A=4'b1100, B=4'b0000, addsub=0, result=4'b1100, cf=0, zero=0, of=0
~~~ OK A=4'b1100, B=4'b0001, addsub=0, result=4'b1101, cf=0, zero=0, of=0
~~~ OK A=4'b1100, B=4'b0010, addsub=0, result=4'b1110, cf=0, zero=0, of=0
~~~ OK A=4'b1100, B=4'b0011, addsub=0, result=4'b1111, cf=0, zero=0, of=0
~~~ OK A=4'b1100, B=4'b0100, addsub=0, result=4'b0000, cf=1, zero=1, of=0
~~~ OK A=4'b1100, B=4'b0101, addsub=0, result=4'b0001, cf=1, zero=0, of=0
~~~ OK A=4'b1100, B=4'b0110, addsub=0, result=4'b0010, cf=1, zero=0, of=0
~~~ OK A=4'b1100, B=4'b0111, addsub=0, result=4'b0011, cf=1, zero=0, of=0
~~~ OK A=4'b1100, B=4'b1000, addsub=0, result=4'b0100, cf=1, zero=0, of=1
~~~ OK A=4'b1100, B=4'b1001, addsub=0, result=4'b0101, cf=1, zero=0, of=1
~~~ OK A=4'b1100, B=4'b1010, addsub=0, result=4'b0110, cf=1, zero=0, of=1
~~~ OK A=4'b1100, B=4'b1011, addsub=0, result=4'b0111, cf=1, zero=0, of=1
~~~ OK A=4'b1100, B=4'b1100, addsub=0, result=4'b1000, cf=1, zero=0, of=0
~~~ OK A=4'b1100, B=4'b1101, addsub=0, result=4'b1001, cf=1, zero=0, of=0
~~~ OK A=4'b1100, B=4'b1110, addsub=0, result=4'b1010, cf=1, zero=0, of=0
~~~ OK A=4'b1100, B=4'b1111, addsub=0, result=4'b1011, cf=1, zero=0, of=0
~~~ OK A=4'b1101, B=4'b0000, addsub=0, result=4'b1101, cf=0, zero=0, of=0
~~~ OK A=4'b1101, B=4'b0001, addsub=0, result=4'b1110, cf=0, zero=0, of=0
~~~ OK A=4'b1101, B=4'b0010, addsub=0, result=4'b1111, cf=0, zero=0, of=0
~~~ OK A=4'b1101, B=4'b0011, addsub=0, result=4'b0000, cf=1, zero=1, of=0
~~~ OK A=4'b1101, B=4'b0100, addsub=0, result=4'b0001, cf=1, zero=0, of=0
~~~ OK A=4'b1101, B=4'b0101, addsub=0, result=4'b0010, cf=1, zero=0, of=0
~~~ OK A=4'b1101, B=4'b0110, addsub=0, result=4'b0011, cf=1, zero=0, of=0
~~~ OK A=4'b1101, B=4'b0111, addsub=0, result=4'b0100, cf=1, zero=0, of=0
~~~ OK A=4'b1101, B=4'b1000, addsub=0, result=4'b0101, cf=1, zero=0, of=1
~~~ OK A=4'b1101, B=4'b1001, addsub=0, result=4'b0110, cf=1, zero=0, of=1
~~~ OK A=4'b1101, B=4'b1010, addsub=0, result=4'b0111, cf=1, zero=0, of=1
~~~ OK A=4'b1101, B=4'b1011, addsub=0, result=4'b1000, cf=1, zero=0, of=0
~~~ OK A=4'b1101, B=4'b1100, addsub=0, result=4'b1001, cf=1, zero=0, of=0
~~~ OK A=4'b1101, B=4'b1101, addsub=0, result=4'b1010, cf=1, zero=0, of=0
~~~ OK A=4'b1101, B=4'b1110, addsub=0, result=4'b1011, cf=1, zero=0, of=0
~~~ OK A=4'b1101, B=4'b1111, addsub=0, result=4'b1100, cf=1, zero=0, of=0
~~~ OK A=4'b1110, B=4'b0000, addsub=0, result=4'b1110, cf=0, zero=0, of=0
~~~ OK A=4'b1110, B=4'b0001, addsub=0, result=4'b1111, cf=0, zero=0, of=0
~~~ OK A=4'b1110, B=4'b0010, addsub=0, result=4'b0000, cf=1, zero=1, of=0
~~~ OK A=4'b1110, B=4'b0011, addsub=0, result=4'b0001, cf=1, zero=0, of=0
~~~ OK A=4'b1110, B=4'b0100, addsub=0, result=4'b0010, cf=1, zero=0, of=0
~~~ OK A=4'b1110, B=4'b0101, addsub=0, result=4'b0011, cf=1, zero=0, of=0
~~~ OK A=4'b1110, B=4'b0110, addsub=0, result=4'b0100, cf=1, zero=0, of=0
~~~ OK A=4'b1110, B=4'b0111, addsub=0, result=4'b0101, cf=1, zero=0, of=0
~~~ OK A=4'b1110, B=4'b1000, addsub=0, result=4'b0110, cf=1, zero=0, of=1
~~~ OK A=4'b1110, B=4'b1001, addsub=0, result=4'b0111, cf=1, zero=0, of=1
~~~ OK A=4'b1110, B=4'b1010, addsub=0, result=4'b1000, cf=1, zero=0, of=0
~~~ OK A=4'b1110, B=4'b1011, addsub=0, result=4'b1001, cf=1, zero=0, of=0
~~~ OK A=4'b1110, B=4'b1100, addsub=0, result=4'b1010, cf=1, zero=0, of=0
~~~ OK A=4'b1110, B=4'b1101, addsub=0, result=4'b1011, cf=1, zero=0, of=0
~~~ OK A=4'b1110, B=4'b1110, addsub=0, result=4'b1100, cf=1, zero=0, of=0
~~~ OK A=4'b1110, B=4'b1111, addsub=0, result=4'b1101, cf=1, zero=0, of=0
~~~ OK A=4'b1111, B=4'b0000, addsub=0, result=4'b1111, cf=0, zero=0, of=0
~~~ OK A=4'b1111, B=4'b0001, addsub=0, result=4'b0000, cf=1, zero=1, of=0
~~~ OK A=4'b1111, B=4'b0010, addsub=0, result=4'b0001, cf=1, zero=0, of=0
~~~ OK A=4'b1111, B=4'b0011, addsub=0, result=4'b0010, cf=1, zero=0, of=0
~~~ OK A=4'b1111, B=4'b0100, addsub=0, result=4'b0011, cf=1, zero=0, of=0
~~~ OK A=4'b1111, B=4'b0101, addsub=0, result=4'b0100, cf=1, zero=0, of=0
~~~ OK A=4'b1111, B=4'b0110, addsub=0, result=4'b0101, cf=1, zero=0, of=0
~~~ OK A=4'b1111, B=4'b0111, addsub=0, result=4'b0110, cf=1, zero=0, of=0
~~~ OK A=4'b1111, B=4'b1000, addsub=0, result=4'b0111, cf=1, zero=0, of=1
~~~ OK A=4'b1111, B=4'b1001, addsub=0, result=4'b1000, cf=1, zero=0, of=0
~~~ OK A=4'b1111, B=4'b1010, addsub=0, result=4'b1001, cf=1, zero=0, of=0
~~~ OK A=4'b1111, B=4'b1011, addsub=0, result=4'b1010, cf=1, zero=0, of=0
~~~ OK A=4'b1111, B=4'b1100, addsub=0, result=4'b1011, cf=1, zero=0, of=0
~~~ OK A=4'b1111, B=4'b1101, addsub=0, result=4'b1100, cf=1, zero=0, of=0
~~~ OK A=4'b1111, B=4'b1110, addsub=0, result=4'b1101, cf=1, zero=0, of=0
~~~ OK A=4'b1111, B=4'b1111, addsub=0, result=4'b1110, cf=1, zero=0, of=0
~~~ OK A=4'b0000, B=4'b0000, addsub=1, result=4'b0000, cf=0, zero=1, of=0
~~~ OK A=4'b0000, B=4'b0001, addsub=1, result=4'b1111, cf=1, zero=0, of=0
~~~ OK A=4'b0000, B=4'b0010, addsub=1, result=4'b1110, cf=1, zero=0, of=0
~~~ OK A=4'b0000, B=4'b0011, addsub=1, result=4'b1101, cf=1, zero=0, of=0
~~~ OK A=4'b0000, B=4'b0100, addsub=1, result=4'b1100, cf=1, zero=0, of=0
~~~ OK A=4'b0000, B=4'b0101, addsub=1, result=4'b1011, cf=1, zero=0, of=0
~~~ OK A=4'b0000, B=4'b0110, addsub=1, result=4'b1010, cf=1, zero=0, of=0
~~~ OK A=4'b0000, B=4'b0111, addsub=1, result=4'b1001, cf=1, zero=0, of=0
~~~ OK A=4'b0000, B=4'b1000, addsub=1, result=4'b1000, cf=1, zero=0, of=1
~~~ OK A=4'b0000, B=4'b1001, addsub=1, result=4'b0111, cf=1, zero=0, of=0
~~~ OK A=4'b0000, B=4'b1010, addsub=1, result=4'b0110, cf=1, zero=0, of=0
~~~ OK A=4'b0000, B=4'b1011, addsub=1, result=4'b0101, cf=1, zero=0, of=0
~~~ OK A=4'b0000, B=4'b1100, addsub=1, result=4'b0100, cf=1, zero=0, of=0
~~~ OK A=4'b0000, B=4'b1101, addsub=1, result=4'b0011, cf=1, zero=0, of=0
~~~ OK A=4'b0000, B=4'b1110, addsub=1, result=4'b0010, cf=1, zero=0, of=0
~~~ OK A=4'b0000, B=4'b1111, addsub=1, result=4'b0001, cf=1, zero=0, of=0
~~~ OK A=4'b0001, B=4'b0000, addsub=1, result=4'b0001, cf=0, zero=0, of=0
~~~ OK A=4'b0001, B=4'b0001, addsub=1, result=4'b0000, cf=0, zero=1, of=0
~~~ OK A=4'b0001, B=4'b0010, addsub=1, result=4'b1111, cf=1, zero=0, of=0
~~~ OK A=4'b0001, B=4'b0011, addsub=1, result=4'b1110, cf=1, zero=0, of=0
~~~ OK A=4'b0001, B=4'b0100, addsub=1, result=4'b1101, cf=1, zero=0, of=0
~~~ OK A=4'b0001, B=4'b0101, addsub=1, result=4'b1100, cf=1, zero=0, of=0
~~~ OK A=4'b0001, B=4'b0110, addsub=1, result=4'b1011, cf=1, zero=0, of=0
~~~ OK A=4'b0001, B=4'b0111, addsub=1, result=4'b1010, cf=1, zero=0, of=0
~~~ OK A=4'b0001, B=4'b1000, addsub=1, result=4'b1001, cf=1, zero=0, of=1
~~~ OK A=4'b0001, B=4'b1001, addsub=1, result=4'b1000, cf=1, zero=0, of=1
~~~ OK A=4'b0001, B=4'b1010, addsub=1, result=4'b0111, cf=1, zero=0, of=0
~~~ OK A=4'b0001, B=4'b1011, addsub=1, result=4'b0110, cf=1, zero=0, of=0
~~~ OK A=4'b0001, B=4'b1100, addsub=1, result=4'b0101, cf=1, zero=0, of=0
~~~ OK A=4'b0001, B=4'b1101, addsub=1, result=4'b0100, cf=1, zero=0, of=0
~~~ OK A=4'b0001, B=4'b1110, addsub=1, result=4'b0011, cf=1, zero=0, of=0
~~~ OK A=4'b0001, B=4'b1111, addsub=1, result=4'b0010, cf=1, zero=0, of=0
~~~ OK A=4'b0010, B=4'b0000, addsub=1, result=4'b0010, cf=0, zero=0, of=0
~~~ OK A=4'b0010, B=4'b0001, addsub=1, result=4'b0001, cf=0, zero=0, of=0
~~~ OK A=4'b0010, B=4'b0010, addsub=1, result=4'b0000, cf=0, zero=1, of=0
~~~ OK A=4'b0010, B=4'b0011, addsub=1, result=4'b1111, cf=1, zero=0, of=0
~~~ OK A=4'b0010, B=4'b0100, addsub=1, result=4'b1110, cf=1, zero=0, of=0
~~~ OK A=4'b0010, B=4'b0101, addsub=1, result=4'b1101, cf=1, zero=0, of=0
~~~ OK A=4'b0010, B=4'b0110, addsub=1, result=4'b1100, cf=1, zero=0, of=0
~~~ OK A=4'b0010, B=4'b0111, addsub=1, result=4'b1011, cf=1, zero=0, of=0
~~~ OK A=4'b0010, B=4'b1000, addsub=1, result=4'b1010, cf=1, zero=0, of=1
~~~ OK A=4'b0010, B=4'b1001, addsub=1, result=4'b1001, cf=1, zero=0, of=1
~~~ OK A=4'b0010, B=4'b1010, addsub=1, result=4'b1000, cf=1, zero=0, of=1
